%YAML 1.1
%TAG !u! tag:unity3d.com,2011:
--- !u!221 &22100000
AnimatorOverrideController:
  m_ObjectHideFlags: 0
  m_PrefabParentObject: {fileID: 0}
  m_PrefabInternal: {fileID: 0}
  m_Name: New Animator Override Controller
  m_Controller: {fileID: 9100000, guid: c2bbed2d3f757844786addd419c74b99, type: 2}
  m_Clips:
  - m_OriginalClip: {fileID: 7400000, guid: 8945e913d549a1b42b7729b2d3c2d1d1, type: 2}
    m_OverrideClip: {fileID: 7400000, guid: 8945e913d549a1b42b7729b2d3c2d1d1, type: 2}
  - m_OriginalClip: {fileID: 7400000, guid: 1b71846b7f25dca4c927d7d27108e853, type: 2}
    m_OverrideClip: {fileID: 7400000, guid: 1b71846b7f25dca4c927d7d27108e853, type: 2}
  - m_OriginalClip: {fileID: 7400000, guid: 45355205ad0f98c4e9a95bf6f8941944, type: 2}
    m_OverrideClip: {fileID: 7400000, guid: 45355205ad0f98c4e9a95bf6f8941944, type: 2}
